﻿[
	{
		"_id":"co-01",
		"_parentId":"course",
		"_type":"page",
		"_classes":"",
		"height":"570",
		"title":"مقدمة",
		"displayTitle":"مقدمة",
		"body":"تساعد الجماهير المشابهة مسؤولي التسويق في العثور على جماهير جديدة تشبه الأشخاص المرتبطين بالعلامة التجارية بالفعل.",
		"_graphic": {
			"alt": "مقدمة",
			"src": "course/en/images/contentObjects/landing_01.jpg"
		},
		"linkText":"عرض",
		"durationLabel": "المدة:",
		"duration": "دقيقة",
		"_pageLevelProgress": {
			"_isEnabled": true
		}
	},
	{
		"_id":"co-02",
		"_parentId":"course",
		"_type":"page",
		"_classes":"",
		"height":"570",
		"title":"نظرة عامة على الجماهير المشابهة",
		"displayTitle":"نظرة عامة على الجماهير المشابهة",
		"body":"ابدأ اكتشاف الأنواع المختلفة للجماهير المشابهة والحالات المناسبة لاستخدام كل منها.",
		"_graphic": {
			"alt": "نظرة عامة على الجماهير المشابهة",
			"src": "course/en/images/contentObjects/landing_02.jpg"
		},
		"linkText":"عرض",
		"durationLabel": "المدة:",
		"duration": "5 دقائق",
		"_pageLevelProgress": {
			"_isEnabled": true
		}
	},
	{
		"_id":"co-03",
		"_parentId":"course",
		"_type":"page",
		"_classes":"",
		"height":"570",
		"title":"إنشاء جمهور مشابه",
		"displayTitle":"إنشاء جمهور مشابه",
		"body":"تعرف على كيفية إنشاء جماهير مشابهة.",
		"_graphic": {
			"alt": "الجماهير المخصصة والمشابهة",
			"src": "course/en/images/contentObjects/landing_04.jpg"
		},
		"linkText":"عرض",
		"durationLabel": "المدة:",
		"duration": "3 دقائق",
		"_pageLevelProgress": {
			"_isEnabled": true
		}
	},
	{
		"_id":"co-04",
		"_parentId":"course",
		"_type":"page",
		"_classes":"",
		"height":"570",
		"title":"اختبار مستوى المعرفة",
		"displayTitle":"اختبار مستوى المعرفة",
		"body":"دعنا نراجع كل ما تعلمته في هذه الدورة التدريبية.",
		"_graphic": {
			"alt": "الجماهير المشابهة",
			"src": "course/en/images/contentObjects/landing_03.jpg"
		},
		"linkText":"عرض",
		"durationLabel": "المدة:",
		"duration":"5 دقائق"
		,
			"_pageLevelProgress": {
			"_isEnabled": true
		}
	}
]